// Jest Snapshot v1, https://goo.gl/fbAQLP

exports[`the CurrencyTable component should render currency rows 1`] = `
<Fragment>
  <div>
    <div>
      : 
      0.00
    </div>
    <Jss(LastUpdated) />
  </div>
  <table>
    <thead>
      <tr>
        <Jss(CurrencyHead)
          align="left"
          name="Currency"
          sort={false}
        />
        <Jss(CurrencyHead)
          align="right"
          name="Stock"
          sort={false}
        />
        <Jss(CurrencyHead)
          align="right"
          name="Buy"
          sort={false}
        />
        <Jss(CurrencyHead)
          align="right"
          name="Sell"
          sort={false}
        />
      </tr>
    </thead>
    <tbody>
      <Connect(Jss(CurrencyRow))
        buy={1.19}
        id="EUR"
        key="EUR"
        low={false}
        sell={1.07}
        stock={1000}
      />
      <Connect(Jss(CurrencyRow))
        buy={0.79}
        id="CAD"
        key="CAD"
        low={false}
        sell={0.72}
        stock={1200}
      />
      <Connect(Jss(CurrencyRow))
        buy={1.35}
        id="GBP"
        key="GBP"
        low={false}
        sell={1.23}
        stock={300}
      />
    </tbody>
  </table>
</Fragment>
`;

exports[`the CurrencyTable component should render properly by default 1`] = `
<Fragment>
  <div>
    <div>
      : 
      0.00
    </div>
    <Jss(LastUpdated) />
  </div>
  <table>
    <thead>
      <tr>
        <Jss(CurrencyHead)
          align="left"
          name="Currency"
          sort={false}
        />
        <Jss(CurrencyHead)
          align="right"
          name="Stock"
          sort={false}
        />
        <Jss(CurrencyHead)
          align="right"
          name="Buy"
          sort={false}
        />
        <Jss(CurrencyHead)
          align="right"
          name="Sell"
          sort={false}
        />
      </tr>
    </thead>
    <tbody />
  </table>
</Fragment>
`;

exports[`the CurrencyTable component should render the various sort possibilities 1`] = `
<Fragment>
  <div>
    <div>
      : 
      0.00
    </div>
    <Jss(LastUpdated) />
  </div>
  <table>
    <thead>
      <tr>
        <Jss(CurrencyHead)
          align="left"
          name="Currency"
          sort="asc"
        />
        <Jss(CurrencyHead)
          align="right"
          name="Stock"
          sort={false}
        />
        <Jss(CurrencyHead)
          align="right"
          name="Buy"
          sort={false}
        />
        <Jss(CurrencyHead)
          align="right"
          name="Sell"
          sort={false}
        />
      </tr>
    </thead>
    <tbody />
  </table>
</Fragment>
`;

exports[`the CurrencyTable component should render the various sort possibilities 2`] = `
<Fragment>
  <div>
    <div>
      : 
      0.00
    </div>
    <Jss(LastUpdated) />
  </div>
  <table>
    <thead>
      <tr>
        <Jss(CurrencyHead)
          align="left"
          name="Currency"
          sort={false}
        />
        <Jss(CurrencyHead)
          align="right"
          name="Stock"
          sort="asc"
        />
        <Jss(CurrencyHead)
          align="right"
          name="Buy"
          sort={false}
        />
        <Jss(CurrencyHead)
          align="right"
          name="Sell"
          sort={false}
        />
      </tr>
    </thead>
    <tbody />
  </table>
</Fragment>
`;

exports[`the CurrencyTable component should render the various sort possibilities 3`] = `
<Fragment>
  <div>
    <div>
      : 
      0.00
    </div>
    <Jss(LastUpdated) />
  </div>
  <table>
    <thead>
      <tr>
        <Jss(CurrencyHead)
          align="left"
          name="Currency"
          sort={false}
        />
        <Jss(CurrencyHead)
          align="right"
          name="Stock"
          sort={false}
        />
        <Jss(CurrencyHead)
          align="right"
          name="Buy"
          sort="asc"
        />
        <Jss(CurrencyHead)
          align="right"
          name="Sell"
          sort={false}
        />
      </tr>
    </thead>
    <tbody />
  </table>
</Fragment>
`;

exports[`the CurrencyTable component should render the various sort possibilities 4`] = `
<Fragment>
  <div>
    <div>
      : 
      0.00
    </div>
    <Jss(LastUpdated) />
  </div>
  <table>
    <thead>
      <tr>
        <Jss(CurrencyHead)
          align="left"
          name="Currency"
          sort={false}
        />
        <Jss(CurrencyHead)
          align="right"
          name="Stock"
          sort={false}
        />
        <Jss(CurrencyHead)
          align="right"
          name="Buy"
          sort={false}
        />
        <Jss(CurrencyHead)
          align="right"
          name="Sell"
          sort="asc"
        />
      </tr>
    </thead>
    <tbody />
  </table>
</Fragment>
`;
